﻿{
  "sbus_local": {
    "cstring": "Endpoint=sb://gnf-insights-ingress-poc.servicebus.windows.net/;SharedAccessKeyName=sannsynpocsaspolicy;SharedAccessKey=Dt+LE+Rz4qEO0H9fkiFstvw2kmnPlJvq3jk8e+kX5Cc=;",
  },
  "cassandra_local":  {
    "keyspace" : "CREATE KEYSPACE IF NOT EXISTS gyldendal WITH REPLICATION = { 'class' : 'SimpleStrategy', 'replication_factor' : 1 }; "
  }
}